[
  {
    id: '1',
    title: '15 minutos o menos',
    description: 'Lorem ipsum dolor sit amet, consectetur adipiscing elit, sed do eiusmod tempor incididunt ut labore',
    tag: '15'
  },
  {
    id: '2',
    title: '15-45 minutos',
    description: 'Lorem ipsum dolor sit amet, consectetur adipiscing elit, sed do eiusmod tempor incididunt ut labore',
    tag: '15-45',
  },
  {
    id: '3',
    title: 'Mas de 45 minutos',
    description: 'Lorem ipsum dolor sit amet, consectetur adipiscing elit, sed do eiusmod tempor incididunt ut labore',
    tag: '45',
  }
]